@startuml "Decoración clases"

' Fondo diagrama
skinparam backgroundcolor AntiqueWhite/Gold

skinparam class {
    ' Fondo
    BackgroundColor PaleGreen
    ' Color borde
    BorderColor<<StyleClass1>> Red
    ' Tipo fondo con degradado lateral
    BackgroundColor<<StyleClass1>> GreenYellow/LightGoldenRodYellow
    ' Tipo fondo con degradado horizontal
    BackgroundColor<<StyleClass2>> red-green
    ' Tipo fondo con degradado vertical
    BackgroundColor<<StyleClass3>> yellow|orange
    ' Color flecha
    ArrowColor SeaGreen
}

' Aplicar tipo fondo a estas clases
Class01 <<StyleClass1>>
Class02 <<StyleClass2>>
Dummy <<StyleClass3>>

' Definir clase con colores de cabecera y contenido diferentes
class Class05 #back:lightgreen|yellow;header:blue/red

Class01 "1" *-- "n" Class02 : contains
Dummy o-- Class05 : aggregation

@enduml

